{
    "type": "application",
    "source-directories": [
        "src"
    ],
    "elm-version": "0.19.1",
    "dependencies": {
        "direct": {
            "NoRedInk/elm-json-decode-pipeline": "1.0.1",
            "Orasund/elm-ui-widgets": "2.1.1",
            "TSFoster/elm-uuid": "4.0.1",
            "avh4/elm-color": "1.0.0",
            "cuducos/elm-format-number": "9.0.1",
            "dillonkearns/elm-markdown": "7.0.0",
            "elm/browser": "1.0.2",
            "elm/core": "1.0.5",
            "elm/html": "1.0.0",
            "elm/http": "2.0.0",
            "elm/json": "1.1.3",
            "elm/parser": "1.1.0",
            "elm/random": "1.0.0",
            "elm/regex": "1.0.0",
            "elm/svg": "1.0.1",
            "elm/time": "1.0.0",
            "elm/url": "1.0.0",
            "elm-community/list-extra": "8.2.4",
            "elm-community/random-extra": "3.1.0",
            "feathericons/elm-feather": "1.5.0",
            "jweir/elm-iso8601": "6.0.1",
            "kalutheo/elm-ui-explorer": "9.1.0",
            "krisajenkins/remotedata": "6.0.1",
            "mdgriffith/elm-ui": "1.1.8",
            "noahzgordon/elm-color-extra": "1.0.2",
            "pablen/toasty": "1.2.0",
            "robinheghan/murmur3": "1.0.0",
            "rlopzc/elm-sentry": "1.0.0",
            "rtfeldman/elm-css": "17.0.5",
            "ryannhg/date-format": "2.3.0",
            "terezka/line-charts": "2.0.1",
            "truqu/elm-base64": "2.0.4"
        },
        "indirect": {
            "1602/elm-feather": "2.3.4",
            "NoRedInk/datetimepicker-legacy": "1.0.5",
            "Orasund/elm-ui-framework": "1.6.1",
            "TSFoster/elm-bytes-extra": "1.3.0",
            "TSFoster/elm-md5": "2.0.1",
            "TSFoster/elm-sha1": "2.1.1",
            "avh4/elm-debug-controls": "2.2.2",
            "danfishgold/base64-bytes": "1.1.0",
            "debois/elm-dom": "1.3.0",
            "elm/bytes": "1.0.8",
            "elm/file": "1.0.5",
            "elm/virtual-dom": "1.0.2",
            "elm-community/intdict": "3.0.0",
            "elm-explorations/markdown": "1.0.0",
            "fredcy/elm-parseint": "2.0.1",
            "justinmimbs/date": "4.0.1",
            "justinmimbs/time-extra": "1.1.1",
            "myrho/elm-round": "1.0.4",
            "owanturist/elm-union-find": "1.0.0",
            "rtfeldman/elm-hex": "1.0.0",
            "turboMaCk/queue": "1.1.0",
            "wernerdegroot/listzipper": "4.0.0"
        }
    },
    "test-dependencies": {
        "direct": {
            "elm-explorations/test": "1.1.0"
        },
        "indirect": {}
    }
}
